{
    "ItemBuckets": [
        {
            "name": "GenericQuest",
            "contents": [
                "Iron",
                "Ruby",
                "Potion",
                "Tonic",
                "TryAgainGem"
            ]
        }
    ]
}